/Users/hoangvietanh/IDEAProj/solr.demo2/src/main/java/com/solr/demo2/domain/BaseDocument.java
/Users/hoangvietanh/IDEAProj/solr.demo2/src/main/java/com/solr/demo2/storage/StorageException.java
/Users/hoangvietanh/IDEAProj/solr.demo2/src/main/java/com/solr/demo2/storage/StorageProperties.java
/Users/hoangvietanh/IDEAProj/solr.demo2/src/main/java/com/solr/demo2/solr/Solr.java
/Users/hoangvietanh/IDEAProj/solr.demo2/src/main/java/com/solr/demo2/config/ApplicationConfig.java
/Users/hoangvietanh/IDEAProj/solr.demo2/src/main/java/com/solr/demo2/Application.java
/Users/hoangvietanh/IDEAProj/solr.demo2/src/main/java/com/solr/demo2/service/impl/AbstractService.java
/Users/hoangvietanh/IDEAProj/solr.demo2/src/main/java/com/solr/demo2/service/impl/SolrServiceImpl.java
/Users/hoangvietanh/IDEAProj/solr.demo2/src/main/java/com/solr/demo2/controller/SearchController.java
/Users/hoangvietanh/IDEAProj/solr.demo2/src/main/java/com/solr/demo2/storage/StorageFileNotFoundException.java
/Users/hoangvietanh/IDEAProj/solr.demo2/src/main/java/com/solr/demo2/service/SolrService.java
/Users/hoangvietanh/IDEAProj/solr.demo2/src/main/java/com/solr/demo2/storage/FileSystemStorageService.java
/Users/hoangvietanh/IDEAProj/solr.demo2/src/main/java/com/solr/demo2/controller/FileUploadController.java
/Users/hoangvietanh/IDEAProj/solr.demo2/src/main/java/com/solr/demo2/storage/StorageService.java
